%YAML 1.1
%TAG !u! tag:unity3d.com,2011:
--- !u!114 &11400000
MonoBehaviour:
  m_ObjectHideFlags: 0
  m_CorrespondingSourceObject: {fileID: 0}
  m_PrefabInstance: {fileID: 0}
  m_PrefabAsset: {fileID: 0}
  m_GameObject: {fileID: 0}
  m_Enabled: 1
  m_EditorHideFlags: 0
  m_Script: {fileID: 11500000, guid: f87d56123995483ab67f73e1d4dd7e9e, type: 3}
  m_Name: SingleMonsterStorage
  m_EditorClassIdentifier: 
  Monsters:
  - id: 0
  references:
    version: 1
    00000000:
      type: {class: MonsterDefinition, ns: Monster, asm: Assembly-CSharp}
      data:
        SpawnRate: 1
        MonsterPrefab: {fileID: 4980070063281165660, guid: 45a92f11912f91944a2821a5e0de305f,
          type: 3}
        MonsterBehaviour:
          QualifiedMonsterBehaviourType: Monster.MonsterBehaviour.DefaultMonsterBehaviour,
            Assembly-CSharp, Version=0.0.0.0, Culture=neutral, PublicKeyToken=null
        MaxHealth: 20
        Defense: 0.3
        Damage: 1
        Name: Sphere Monster
        Speed: 2
